﻿

STATE_KRAKDHUMVROR = {
    id = 700
    subsistence_building = "building_subsistence_farms"
    provinces = { "x78B024" "x80B811" "x89CC35" "x9D9D26" "x9FE4C0" "xA2B215" "xA49A0B" "xACA108" "xADB048" "xAEA610" "xAEAB19" "xB0BE1A" "xB3AE09" "xB4D363" "xB6BF1F" "xB7AC29" "xB9C930" "xBACE3A" "xBBD644" "xC1C927" "xC1D84A" "xC2C820" "xC3C00A" "xC4C412" "xC5C719" "xC8BF21" "xCBE152" "xCBE644" "xCBE64D" "xCBE64E" "xCFE96D" "xD1D50D" }
    traits = {}
    city = "xC4C412"
    arable_land = 1
    arable_resources = { bg_serpentbloom_farms bg_livestock_ranches }
    capped_resources = {
        bg_logging = 1
    }
}

STATE_DUR_VAZHATUN = {
    id = 701
    subsistence_building = "building_subsistence_farms"
    provinces = { "xE6F396" "xE6F62B" "xE7E741" "xE7E92B" "xE7EB2B" "xE8E45C" "xE8FBDF" "xE9D42B" "xE9F9FD" "xEAE27F" "xEBCB2B" "xEBEB2B" "xECBF77" "xECC941" "xECF9F0" "xEDC55F" "xEDD3F5" "xEDE3AB" "xEEACFF" "xEEBD9A" "xEED9DE" "xEEE3CC" "xEEED91" "xEEED93" "xEEEEB1" "xEFB8D3" "xEFBAB8" "xEFCDFE" "xEFF3DA" "xF2ED90" "xF2EDC3" "xF4B9D5" "xF6ECB2" "xF7ADFF" "xF9B8B0" "xF9B9D0" "xFCB299" "xFCDFA4" "xFCF2A9" "xFDC98B" "xFEBA85" "xFFAD80" }
    traits = {}
    city = "xEFBAB8"
    arable_land = 1
    arable_resources = { bg_wheat_farms bg_livestock_ranches bg_serpentbloom_farms }
    capped_resources = {
        bg_logging = 1
    }
}

STATE_ORLAZAM_AZ_DIHR = {
    id = 702
    subsistence_building = "building_subsistence_farms"
    provinces = { "x00E029" "x00F662" "x00FF7A" "x0DD81C" "x0DE62E" "x0DED49" "x0FD20D" "x1BE63B" "x1ED21B" "x27E646" "x2BF06A" "x2ED22B" "x37D675" "x3CD58A" "x3DED74" "x3ED336" "x45DD75" "x46E171" "x47D041" "x49DA63" "x4CCD3E" "x4EE184" "x52D86B" "x53E575" "x56D050" "x5EF169" "x5FD877" "x5FED7F" "x62F958" "x63CC4E" "x64D041" "x64D051" "x64D05D" "x6ACE1F" "x74DA38" "x7BDA19" "x80F664" "x82E138" "x82E947" "x82F057" "x8AD893" "x8BF844" "x8CF02C" "x8DE714" "x94BD3B" "x94C36A" }
    traits = {}
    city = "x3ED336"
    arable_land = 1
    arable_resources = { bg_wheat_farms bg_livestock_ranches bg_serpentbloom_farms }
    capped_resources = {
        bg_logging = 1
    }
}

STATE_AMLDIHR = {
    id = 703
    subsistence_building = "building_subsistence_farms"
    provinces = { "x631863" "x670061" "x672747" "x6C493D" "x701C5E" "x78006A" "x7C5138" "x7FDC12" "x832859" "x8E5B32" "x912808" "x924548" "x926668" "x933110" "x94D727" "x953B19" "x95872B" "x95C516" "x964C39" "x965231" "x975A39" "x98A96A" "x9B4109" "x9B5C28" "x9D4054" "x9D6654" "x9D9F52" "x9F4939" "xA0892F" "xA26363" "xA37730" "xA3803A" "xA45D27" "xA69044" "xA9AB1B" "xABD13F" "xAC7627" "xAC7D54" "xAE542F" "xAE7420" "xAE934A" "xAFBC48" "xB0630A" "xB16A23" "xB16B12" "xB34D2C" "xB37219" "xB45650" "xB4C45C" "xB57F0B" "xB5875F" "xB5C45C" "xB8AD5F" "xBA9354" "xBAA652" "xBAAE44" "xBAAE4D" "xBAAE4E" "xBB8931" "xBE5439" "xC2AA1C" "xC4771E" "xC6B74B" "xC7AA5B" "xC9AA54" "xCA9F59" "xCACE3F" "xCAD368" "xCB4938" "xCD542F" "xCD543A" "xCD5443" "xCDB14A" "xCF5F47" "xCF644F" "xD07044" "xD07E42" "xD35116" "xD47F19" "xD53F64" "xD76543" "xD7A21A" "xD8725B" "xDC5A32" "xDD7228" "xDE8C59" "xE57412" "xE94F25" "xEAC548" "xEC8928" "xEC9F33" "xECB53E" "xED745A" "xEE6C29" "xF68F06" "xF6B220" "xF8990E" "xFA4260" "xFBDB0A" }
    traits = {}
    city = "xCF644F"
    arable_land = 1
    arable_resources = { bg_wheat_farms bg_livestock_ranches bg_serpentbloom_farms }
    capped_resources = {
        bg_logging = 1
    }
}

STATE_AMLHARAZ = {
    id = 704
    subsistence_building = "building_subsistence_farms"
    provinces = { "x00B407" "x00C519" "x00EA2E" "x03E730" "x08B10C" "x0DE437" "x12F300" "x13EE2D" "x15AE15" "x15DD09" "x15E000" "x15E300" "x15E945" "x18D94E" "x199A55" "x19DA14" "x19F94B" "x1AE23F" "x1CC300" "x1DD225" "x1EC721" "x1FD723" "x20B700" "x23B309" "x23DC31" "x24A520" "x24B052" "x24F652" "x26D835" "x27C254" "x288C58" "x28A32E" "x29B041" "x29CB4A" "x29E52A" "x2AE738" "x2B9F3B" "x2BBA58" "x2D9C46" "x2DEE49" "x2EED4D" "x35E62A" "x35E63F" "x37AF48" "x3A9D47" "x40E538" "x419416" "x438D58" "x449827" "x44AC52" "x479D37" "x489C37" "x4AF535" "x50942E" "x51ED34" "x52B328" "x52B557" "x52F329" "x53E21A" "x559F25" "x588D23" "xA05B84" }
    traits = {}
    city = "x24A520"
    arable_land = 1
    arable_resources = { bg_wheat_farms bg_livestock_ranches bg_serpentbloom_farms }
    capped_resources = {
        bg_logging = 1
    }
}

STATE_HALL_OF_ANCESTORS = {
    id = 705
    subsistence_building = "building_subsistence_farms"
    provinces = { "x1DEF93" "x26ED98" "x40EBAA" "x4BF61D" "x53C253" "x53EA1D" "x5CE351" "x5EB7AE" "x5FE9BF" "x65B1C4" "x66D21D" "x6CE177" "x75AFD8" "x7ABB6F" "x7EE1A5" "x85A7FF" "x85B993" "x86C3C5" "x8DB6B4" "x91DC4D" "x93D0E3" "xA7CADF" "xA9CADF" "xA9F9D5" "xAAC2D5" "xADD677" "xAECB93" "xAFD98E" "xB1D74C" "xC2715B" "xC4D456" "xC7CCB5" "xC8A9FF" "xCCC0EF" "xF0BFD3" "xF0C7FD" "xF6B2C5" }
    traits = {}
    city = "x85A7FF"
    arable_land = 1
    arable_resources = { bg_wheat_farms bg_livestock_ranches bg_serpentbloom_farms }
    capped_resources = {
        bg_logging = 1
    }
}

STATE_VERKAL_VAZKRON = {
    id = 706
    subsistence_building = "building_subsistence_farms"
    provinces = { "x0872C3" "x0872CD" "x0872DF" "x0872E8" "x0884B1" "x0886DF" "x08B1C5" "x08C7CE" "x0972A8" "x1072C3" "x1086DF" "x10B1C5" "x1172B1" "x1786DF" "x17B1CD" "x1972C3" "x1B5EC4" "x1BA1C0" "x1C5ABD" "x1F86DF" "x1FB1D5" "x20B2C4" "x2172C3" "x239FBE" "x2686DF" "x26B1DC" "x275ED3" "x28A4CD" "x28B2C3" "x2972C3" "x2AA3DF" "x2CA3CB" "x2E86DF" "x3086E4" "x30A6D3" "x3161DA" "x31A3CB" "x3272C3" "x33E1F3" "x359ECB" "x3686DF" "x36A2D4" "x3786EC" "x3A63E2" "x3AD2F3" "x3C96EA" "x3C99D4" "x3E86DF" "x4194F2" "x4396E8" "x4396E9" "x446FC3" "x4480CD" "x4586DF" "x4A5ED9" "x4A5EEA" "x4A94DF" "x934829" "xAB8B33" "xB9F1CA" "xC28531" "xCD4D4A" }
    traits = {}
    city = "x1BA1C0"
    arable_land = 1
    arable_resources = { bg_wheat_farms bg_livestock_ranches bg_serpentbloom_farms }
    capped_resources = {
        bg_logging = 1
    }
}

STATE_HARAZ_ORLDHUM = {
    id = 707
    subsistence_building = "building_subsistence_farms"
    provinces = { "x339E2E" "x5D457F" "x632FF9" "x96002C" "x961A20" "x99301B" "x9FE4C2" "xA10030" "xA91B28" "xAFD06C" "xB31A04" "xB42107" "xB4432F" "xB5270B" "xB5820A" "xB7321A" "xB76F30" "xBA2B04" "xBA3D12" "xBB2A26" "xBB4326" "xBD301A" "xBF4E16" "xBF551A" "xC15F1F" "xC2717C" "xC3710C" "xC55226" "xC74D0F" "xC76121" "xC84205" "xC94610" "xC94708" "xCA4B0B" "xCB3924" "xCC592B" "xCC812A" "xCE722B" "xD06126" "xD06E25" "xD0731F" "xD07323" "xD1D50E" "xD87129" "xD87922" "xDA7026" "xDA881D" "xDE4224" "xDE4A1F" "xDE531E" "xE07A8B" "xE1350A" "xE76769" "xED4D08" "xF03411" "xF08221" "xF25B12" "xF26917" "xF2781C" "xF44712" "xF95F03" "xF9760E" "xFA6506" "xFC9105" }
    traits = {}
    city = "xB4432F"
    arable_land = 1
    arable_resources = { bg_wheat_farms bg_livestock_ranches bg_serpentbloom_farms }
    capped_resources = {
        bg_logging = 1
    }
}

STATE_KHUGDIHR = {
    id = 708
    subsistence_building = "building_subsistence_farms"
    provinces = { "xBB0796" "xBB326D" "xBD585E" "xBF2691" "xC207A4" "xC46056" "xC6FB1C" "xC7348A" "xCE330D" "xCE546F" "xCE78A1" "xCF3D19" "xCF4827" "xCF573F" "xCF9D42" "xCFE123" "xD05C58" "xD0614D" "xD06B59" "xD1C2A3" "xD24F0E" "xD26D3E" "xD34E82" "xD37881" "xD3B77F" "xD45857" "xD49F49" "xD68A4A" "xD69559" "xD7A669" "xD8C529" "xD9A14E" "xDA893C" "xDA9181" "xDAA972" "xDB8732" "xDC750F" "xDC7D36" "xDC7E1C" "xDD8526" "xDE667C" "xDE9411" "xDFC793" "xE0A358" "xE0A981" "xE0BF7F" "xE0C869" "xE0C878" "xE15B66" "xE48A2E" "xE59E5B" "xE5D174" "xE6C48D" "xE7B78A" "xE7C381" "xE7EC62" "xE7F0A1" "xE85D72" "xE8CA73" "xE9767A" "xEA706F" "xEA8369" "xEA9266" "xEB6022" "xEC9427" "xED7768" "xEDBA29" "xEF6A4D" "xF3871C" "xF55F39" "xF5E16F" "xF69F3E" "xF6B74F" "xF6CF60" "xF87F3F" "xFBA60A" "xFDF90F" }
    traits = {}
    city = "xDC750F"
    arable_land = 1
    arable_resources = { bg_wheat_farms bg_livestock_ranches bg_serpentbloom_farms }
    capped_resources = {
        bg_logging = 1
    }
}

STATE_MITHRADHUM = {
    id = 709
    subsistence_building = "building_subsistence_farms"
    provinces = { "x6E731C" "x75CC54" "x76551E" "xA38F57" "xA5BC5C" "xB47135" "xC0BB42" "xC3C823" "xC69442" "xCFD369" "xDF533A" "xDF9A05" "xE29608" "xE6E81F" "xE7920F" "xE7D900" "xE7E131" "xE8763C" "xE8CC37" "xE8F735" "xEAC31A" "xEC8616" "xEC943A" "xECD023" "xEE8320" "xEEDC1E" "xEEDF27" "xEFE02A" "xEFE833" "xF0AA16" "xF0B337" "xF0E736" "xF2DD2C" "xF47D21" "xF4D135" "xF51831" "xF66E0F" "xF6DC27" "xF79627" "xF8741C" "xF88C1D" "xF97A26" "xF97A27" "xFA8316" "xFAF125" "xFC6E20" "xFC9C18" "xFCE725" "xFDC208" "xFDD812" "xFDEE1D" "xFF6519" }
    traits = {}
    city = "xFAF125"
    arable_land = 1
    arable_resources = { bg_wheat_farms bg_livestock_ranches bg_serpentbloom_farms }
    capped_resources = {
        bg_logging = 1
    }
}

STATE_ER_NATVIR = {
    id = 710
    subsistence_building = "building_subsistence_farms"
    provinces = { "x08DB45" "x08DB58" "x08E023" "x08E07A" "x08EB47" "x08F159" "x09DB10" "x10DB45" "x10E07A" "x10EB48" "x17E07A" "x17EB56" "x1ADB45" "x1BD646" "x1CE73E" "x1CE74A" "x1DD53A" "x1DD762" "x1DD955" "x1DDB62" "x20DC45" "x20E07A" "x20EB66" "x21DB4A" "x21EC47" "x21EC59" "x21F26F" "x21F886" "x22D761" "x23E851" "x24DB45" "x24E73B" "x25E045" "x27E07A" "x27EB74" "x27F12E" "x28D763" "x29E857" "x29EC45" "x2ADA50" "x2AF893" "x2BE27A" "x2BE645" "x2BE87A" "x2CE15B" "x2DE854" "x2FE07A" "x31E083" "x31E962" "x31EC45" "x32D771" "x32E854" "x34F7A0" "x36E754" "x37E765" "x38E07A" "x39E092" "x3AFBB3" "x3CD87E" "x3CDB45" "x3CE045" "x3CE745" "x3CEDA0" "x3CF4A0" "x3DDC7B" "x3DE175" "x3DE565" "x3DE571" "x3DE58D" "x3FE07A" "x40EC8F" "x43E49D" "x44D96F" "x44E57D" "x44E58B" "x44E58C" "x45D951" "x45DB44" "x45DF56" "x45E56D" "x45EA84" "x47E07A" "x4CD66D" "x4CD68F" "x4CD93B" "x4CE43B" "x4CE47A" "x55D5A6" }
    traits = {}
    city = "x1CE73E"
    arable_land = 1
    arable_resources = { bg_wheat_farms bg_livestock_ranches bg_serpentbloom_farms }
    capped_resources = {
        bg_logging = 1
    }
}

STATE_MARRHOLD = {
    id = 711
    subsistence_building = "building_subsistence_farms"
    provinces = { "x7D03F4" "x8804EC" "x920BB3" "x941E7A" "x9C19DC" "xA016ED" "xA10CAA" "xA20AC6" "xA313C0" "xA40EC5" "xA50CA3" "xA510B4" "xA608D5" "xA611C7" "xA61D9B" "xA70995" "xA815A2" "xAA068A" "xAA129B" "xAB037C" "xAC006F" "xAF08E3" "xB10060" "xB117B9" "xB31480" "xB61199" "xB711F7" "xB906FF" "xB90DD6" "xB913E6" "xB91CBE" "xBA16D9" "xBC0FFE" "xBC1490" "xBF0BDF" "xC01481" "xC1045F" "xC111EB" "xC2066C" "xC3035F" "xC30A7E" "xC31199" "xC4025F" "xC40D8D" "xC714A0" "xCC075F" "xCC178A" "xCE0FE8" "xCE108C" "xCE1CE2" "xCF0D9C" "xCF0EDB" "xCF109D" "xD0139E" "xD110B2" "xD113AF" "xD21380" "xDA10D7" "xDB1185" "xDD1687" "xDE0EC5" "xDF06FF" "xDF10CA" "xE20CAA" "xF60CE0" "xFA09D6" }
    traits = {}
    city = "xAF08E3"
    arable_land = 80
    arable_resources = { bg_rye_farms bg_livestock_ranches }
    capped_resources = {
        bg_iron_mining = 40
        bg_lead_mining = 15
        bg_coal_mining = 30
    }
}

STATE_VERKAL_KOZENAD = {
    id = 712
    subsistence_building = "building_subsistence_farms"
    provinces = { "xBB06DC" "xBD2E5F" "xCC5E9D" "xCF1DAD" "xCF2849" "xCF41A1" "xD91A35" "xD91A44" "xDD1A35" "xDF3CB2" "xE11A35" "xE2145F" "xE21C60" "xE5236E" "xE52D6D" "xE6186D" "xE8065E" "xE91A35" "xE9372D" "xEB0C5E" "xEC44B5" "xED246D" "xED286D" "xED2E6D" "xEE1A35" "xF0175E" "xF0372D" "xF1186E" "xF11A35" "xF11C5B" "xF11E6E" "xF11F35" "xF12145" "xF1246E" "xF12635" "xF12A6E" "xF13235" "xF13262" "xF13835" "xF13844" "xF13852" "xF13860" "xF21A35" "xF32745" "xF5385F" "xF72E45" "xF9364D" }
    traits = {}
    city = "xF1246E"
    arable_land = 1
    arable_resources = { bg_wheat_farms bg_livestock_ranches bg_serpentbloom_farms }
    capped_resources = {
        bg_logging = 1
    }
}

STATE_HUL_JORKAD = {
    id = 713
    subsistence_building = "building_subsistence_farms"
    provinces = { "x00E751" "x00F8A5" "x06F7A9" "x0DA706" "x0FE65C" "x15E03A" "x17FBCB" "x1AF6B8" "x23FB43" "x29E570" "x29F456" "x29F543" "x29F643" "x2FF36E" "x37EC43" "x3BF28D" "x3DE843" "x43E656" "x46E287" "x49F2B5" "x4BEBF6" "x4EDAFF" "x4EE1A5" "x4FE6CE" "x4FEEE2" "x53E9FE" "x54E0C0" "x57DFD8" "x6AE5DC" "x6DE9A5" "x6DEE8D" "x6EEFA1" "x6FEE6A" "x70DFDA" "x747968" "x75DCE4" "x7DDC71" "x81DAFF" "x83DE97" "x83E4F2" "x89DFB7" "x8BDFB9" "x8FFCB5" "x9BDCA4" "x9EE699" "x9FFB9A" "xA1F67B" "xA5E093" "xAADA8E" }
    traits = {}
    city = "x23FB43"
    arable_land = 1
    arable_resources = { bg_wheat_farms bg_livestock_ranches bg_serpentbloom_farms }
    capped_resources = {
        bg_logging = 1
    }
}

STATE_GOR_BURAD = {
    id = 714
    subsistence_building = "building_subsistence_farms"
    provinces = { "x0FFB05" "x12E741" "x12F51E" "x12F705" "x15F43F" "x18ED05" "x1BEA05" "x1BF368" "x1EE91E" "x1FE45F" "x1FFCED" "x20CE4F" "x20E742" "x21D242" "x21F39C" "x22EDF3" "x23E487" "x23F77E" "x25EBFE" "x26E3AC" "x27E2CB" "x27FAD4" "x2EF8B8" "x2FC968" "x32E2CE" "x37F7A4" "x38DF43" "x39B869" "x3ADDFF" "x3EE2A2" "x3EE2C8" "x45DF86" "x45F294" "x46FA99" "x47E977" "x4AE36F" "x4CDD69" "x57C686" }
    traits = {}
    city = "x1BEA05"
    arable_land = 1
    arable_resources = { bg_wheat_farms bg_livestock_ranches bg_serpentbloom_farms }
    capped_resources = {
        bg_logging = 1
    }
}

STATE_OVDAL_LODHUM = {
    id = 715
    subsistence_building = "building_subsistence_farms"
    provinces = { "x1244D7" "x1F3A72" "x393C86" "xA1C9A5" "xB9AC84" "xD23416" "xFF692A" "xFF7337" "xFF7D54" "xFF7E43" "xFF7F55" "xFF8053" "xFF812D" "xFF8247" "xFF8737" "xFF8A26" "xFF961A" "xFF9C0B" "xFF9C30" "xFFA000" "xFFA56A" "xFFAF65" "xFFB100" "xFFC53D" "xFFCA2A" "xFFCC40" "xFFCE19" "xFFD30B" "xFFD700" "xFFDB00" "xFFDD33" "xFFDD34" "xFFDD43" "xFFDE4C" "xFFDF33" "xFFE043" "xFFE836" "xFFE83F" "xFFE958" "xFFEF00" "xFFF363" "xFFF569" "xFFF75A" }
    traits = {}
    city = "xFF812D"
    arable_land = 1
    arable_resources = { bg_wheat_farms bg_livestock_ranches bg_serpentbloom_farms }
    capped_resources = {
        bg_logging = 1
    }
}

STATE_VERKAL_SKOMDIHR = {
    id = 716
    subsistence_building = "building_subsistence_farms"
    provinces = { "xBF0FBA" "xBF147F" "xC60FBA" "xCC0FBA" "xCD0C7C" "xCF0A7E" "xCF1275" "xD00970" "xD00B8F" "xD00C9F" "xD214A3" "xD3147F" "xD60C7C" "xD61271" "xD71082" "xD814B3" "xD90A9F" "xD91391" "xDA107A" "xDA147C" "xDB12BA" "xDB1AD7" "xDC0F42" "xDD128E" "xDE1143" "xE0139E" "xE0147C" "xE10AAF" "xE1128E" "xE21AE5" "xE50FBA" "xE512A1" "xE80ABF" "xE8127C" "xE818E5" "xE81ABC" "xE90C7C" "xEA0DBB" "xEA11A2" "xEA11D0" "xEC0FBA" "xEE10E2" "xEF11CE" "xF00C7B" "xF00E91" "xF011AB" "xF10FBA" "xF50AAB" "xF50AD2" }
    traits = {}
    city = "xEA11A2"
    arable_land = 1
    arable_resources = { bg_wheat_farms bg_livestock_ranches bg_serpentbloom_farms }
    capped_resources = {
        bg_logging = 1
    }
}

STATE_ARG_ORDSTUN = {
    id = 717
    subsistence_building = "building_subsistence_farms"
    provinces = { "x0963C3" "x0DC99B" "x11C682" "x1423AA" "x16F5E4" "x1C9A1A" "x1E791B" "x1EEF60" "x21D774" "x2569F3" "x2A36F1" "x30F2CB" "x378E30" "x3BA4FA" "x46A7CE" "x499767" "x527F5C" "x55861D" "x559690" "x55A23D" "x57F3C7" "x581B5F" "x5D64BE" "x5E33C2" "x5F0D85" "x5F185F" "x66DAE1" "x670856" "x671684" "x71115F" "x760D15" "x76169E" "x790F5F" "x7D87D3" "x7FC104" "x830B99" "x831CF4" "x83802B" "x8642A3" "x8B1D79" "x8C2265" "x8D0BB2" "x8F19AC" "x92220C" "x950ACA" "x9909DE" "x991AE3" "x9C3614" "x9D4B61" "x9FBDCB" "xA3264B" "xA7759D" "xAA0B5E" "xAD19D2" "xAF7CEC" "xB2C6FD" "xB709E0" "xB9F835" "xBA41CC" "xC618C5" "xC70787" "xCAAE5F" "xCC06FF" "xD3DC8E" "xE10086" "xEA15BB" "xEA3E8F" "xED07B2" "xEE1ABE" "xF00EA8" "xF20449" "xF27952" "xF4FC83" "xF80AA3" "xFF069F" }
    traits = {}
    city = "x790F5F"
    arable_land = 1
    arable_resources = { bg_wheat_farms bg_livestock_ranches bg_serpentbloom_farms }
    capped_resources = {
        bg_logging = 1
    }
}

STATE_SHAZSTUNDIHR = {
    id = 718
    subsistence_building = "building_subsistence_farms"
    provinces = { "x066514" "x066519" "x066523" "x066528" "x06780A" "x067A23" "x06A614" "x06BE19" "x0A1615" "x0B6514" "x0B7A23" "x0E2E15" "x117A23" "x124815" "x126514" "x134D23" "x136E23" "x167A23" "x16A61D" "x178829" "x17B028" "x186514" "x196414" "x1A5C28" "x1B7A23" "x1BA621" "x1C1623" "x1DD611" "x1E5D17" "x1E6514" "x1E9823" "x1EA224" "x202E23" "x217A23" "x239A28" "x239B28" "x23B128" "x23B828" "x244223" "x245C29" "x245D1C" "x246514" "x248B28" "x277A23" "x28D611" "x29BC29" "x2A5C29" "x2A6514" "x2A7429" "x2A7A14" "x2A7E19" "x2A8B29" "x2A9414" "x2AA229" "x2AAB14" "x2AC029" "x2AC314" "x2AC325" "x2ADA14" "x2ADA19" "x2ADA1F" "x2ADA23" "x2ADA29" "x2B6514" "x2D7A23" "x2D9919" "x2F882D" "x2FDA23" "x317E14" "x327A23" "x32B319" "x35501F" "x355029" "x355A11" "x358811" "x358823" "x35D01D" "x369814" }
    traits = {}
    city = "x2A7A14"
    arable_land = 1
    arable_resources = { bg_wheat_farms bg_livestock_ranches bg_serpentbloom_farms }
    capped_resources = {
        bg_logging = 1
    }
}

STATE_ORLGHELOVAR = {
    id = 719
    subsistence_building = "building_subsistence_farms"
    provinces = { "x00CE0E" "x00D834" "x00F161" "x03EF65" "x06CB19" "x0BED74" "x0CC362" "x12CA2C" "x12ED00" "x14E6A5" "x15C078" "x15C758" "x15E62B" "x15EC85" "x16CC77" "x16DC71" "x17C850" "x17D362" "x17D879" "x17FB45" "x18BB89" "x18BE3F" "x1AAB22" "x1AE44A" "x1BA113" "x1DB99A" "x1EA101" "x1EE868" "x20E570" "x21D6B1" "x22B3BA" "x22CB8A" "x22F96E" "x24D1B9" "x24E039" "x25C395" "x26E127" "x27AF00" "x27B40F" "x27D6A3" "x28C124" "x28CB36" "x28D543" "x2ADF4C" "x2DB600" "x2DD1A0" "x2DE832" "x2ECA98" "x2ECB90" "x2ED1A0" "x2EFA98" "x2FC847" "x2FD248" "x2FDB4A" "x30D261" "x30DC27" "x30DE5D" "x35D38C" "x36B82E" "x36BCAF" "x36D62C" "x37E52E" "x38B4BA" "x38D1A0" "x38D37D" "x39C8AD" "x3ADC9D" "x42D29E" "x45C796" "x45CEB9" "x45F756" "x47BC8B" "x4AAE4A" "x4AB585" }
    traits = {}
    city = "x38D37D"
    arable_land = 1
    arable_resources = { bg_wheat_farms bg_livestock_ranches bg_serpentbloom_farms }
    capped_resources = {
        bg_logging = 1
    }
}

STATE_GOR_VAZUMBROG = {
    id = 720
    subsistence_building = "building_subsistence_farms"
    provinces = { "x000000" "x005E42" "x008D9E" "x00A0C5" "x096B4A" "x0B4115" "x136B5E" "x15412C" "x214145" "x21C894" "x2378ED" "x2749BC" "x2B4357" "x2B7ABB" "x3159BC" "x3161B6" "x3353A0" "x345077" "x353764" "x3761D5" "x397CD6" "x41969C" "x4283A9" "x437ACC" "x45347D" "x473C69" "x473C82" "x4B3A31" "x4E7773" "x543293" "x565328" "x5A8DA1" "x5E76D5" "x627F47" "x636D20" "x6821AB" "x735E92" "x9F12CE" "xA5CC2E" "xAE5218" "xD569F1" "xD5E999" "xDABC47" "xFFA47A" }
    traits = {}
    city = "x00A0C5"
    arable_land = 1
    arable_resources = { bg_wheat_farms bg_livestock_ranches bg_serpentbloom_farms }
    capped_resources = {
        bg_logging = 1
    }
}

STATE_HEHODOVAR = {
    id = 721
    subsistence_building = "building_subsistence_farms"
    provinces = { "xB49712" "xBD4D1E" "xBD4D27" "xBD4D36" "xBD4D3D" "xBD5C36" "xC44D1E" "xC45C36" "xCA5C36" "xCC4D1E" "xD15C36" "xD34D1E" "xD75C36" "xD94D1E" "xDE5C36" "xE14D1E" "xE45C36" "xE8463F" "xE84D1E" "xE8583F" "xE85C1E" "xE8693F" "xE8701E" "xE87B3F" "xE8821E" "xE8913F" "xE8931E" "xE8A51E" "xE8A527" "xE8A52F" "xE8A537" "xE8A53F" "xEB5C36" "xEF9F38" "xF15C36" "xF5451A" "xF5671A" "xF56736" }
    traits = {}
    city = "xBD4D27"
    arable_land = 1
    arable_resources = { bg_wheat_farms bg_livestock_ranches bg_serpentbloom_farms }
    capped_resources = {
        bg_logging = 1
    }
}

STATE_SEGHDIHR = {
    id = 722
    subsistence_building = "building_subsistence_farms"
    provinces = { "x14B852" "x14B869" "x14B892" "x14B8A7" "x14C292" "x14D755" "x14E36B" "x28B852" "x28C292" "x3AC292" "x3FB852" "x45CF4A" "x4FC292" "x52DA6A" "x52E585" "x52F0A1" "x54B852" "x59B752" "x5ACF46" "x61C292" "x61D78B" "x66B275" "x68B460" "x68B852" "x69F0B0" "x6BD092" "x75C292" "x7CAF87" "x7FB852" "x80F0BF" "x89D079" "x8AC292" "x94B852" "x94C252" "x94CF52" "x94DA52" "x94DCBF" "x94E552" "x94E8BF" "x94F052" "x94F069" "x94F080" "x94F095" "x96B852" "x97CAA9" "x97CC79" "x9DC292" "x9FD8AC" "xA9B485" "xA9CA96" "xA9CAA7" "xA9CAA8" "xABC452" "xACB461" "xACB751" "xACBF67" "xACCA83" "xACD69E" "xAFC292" "xBCAE83" "xBCAEAB" "xBCB346" "xBCC946" "xBCC992" }
    traits = {}
    city = "x3AC292"
    arable_land = 1
    arable_resources = { bg_wheat_farms bg_livestock_ranches bg_serpentbloom_farms }
    capped_resources = {
        bg_logging = 1
    }
}

STATE_VERKAL_GULAN = {
    id = 723
    subsistence_building = "building_subsistence_farms"
    provinces = { "x0003F6" "x0300F4" "x0306D4" "x070AC8" "x0B04F0" "x1100FF" "x140CC2" "x161F95" "x1906EA" "x230BD1" "x230DBB" "x250689" "x260793" "x260DB6" "x2611C3" "x27089D" "x2709DD" "x2713B3" "x271C9A" "x271FAF" "x280AAA" "x290BC4" "x290DC4" "x2D0DAF" "x2E09E4" "x3008E9" "x300AC3" "x3114B8" "x320080" "x3311B9" "x3312C5" "x3515D1" "x37189F" "x3914BC" "x391ECB" "x3D0E8B" "x3E0F95" "x3E0FA9" "x3F109D" "x41057F" "x410CE0" "x4112EF" "x4614BA" "x4714BA" "x4B077F" "x4B18A1" "x4C10ED" "x4C13BA" "x4D10ED" "x4D11A3" "x4D1EE7" "x5217EA" "x521EFD" "x560ED5" "x560EDE" "x5710D1" "x5712CE" "x5A129D" "x5B09F7" "x5C0ED0" "x5C179F" "x5D10ED" "x600DBB" "x6214EB" "x6A0BAC" "x6E11EC" "x6F0FB0" "x740DE6" "x751487" "x7709DE" "x7809F3" "x791F8B" }
    traits = {}
    city = "x3E0FA9"
    arable_land = 1
    arable_resources = { bg_wheat_farms bg_livestock_ranches bg_serpentbloom_farms }
    capped_resources = {
        bg_logging = 1
    }
}

STATE_GOR_OZUMBROG = {
    id = 724
    subsistence_building = "building_subsistence_farms"
    provinces = { "x18984A" "x218381" "x21A557" "x22A068" "x269B7E" "x2C7A57" "x326757" "x33A957" "x366268" "x36F41C" "x3A5B80" "x3D77F7" "x4085E5" "x4444C7" "x473FDC" "x56CC1B" "x583C3E" "x5B41DE" "x69C745" "x7043DA" "x7087EA" "xB75155" "xC0DE75" "xC5BFBF" "xDC8F68" "xDC9A18" }
    traits = {}
    city = "x473FDC"
    arable_land = 1
    arable_resources = { bg_wheat_farms bg_livestock_ranches bg_serpentbloom_farms }
    capped_resources = {
        bg_logging = 1
    }
}

STATE_OVDAL_KANZAD = {
    id = 725
    subsistence_building = "building_subsistence_farms"
    provinces = { "x06D2D2" "x06D2DA" "x06D2E7" "x06D2EE" "x06D8E7" "x06E6D3" "x06EDDA" "x0DD2D2" "x0DD8E7" "x12D8E7" "x14D2D2" "x19D8E7" "x19DDF0" "x19E9EF" "x1AD2D2" "x1CCFEF" "x1CD2D2" "x1ED8E7" "x1EE6E5" "x21D0D7" "x21D2D2" "x21E1E7" "x25D8E7" "x26E2EF" "x26E9EF" "x27DEEF" "x28CFF0" "x28D2D2" "x2BD8E7" "x2ECFF0" "x2ED2D2" "x2ED6F0" "x2ED8D2" "x2EDEF0" "x2EE0D2" "x2EE5F0" "x2EE7D2" "x2EEEF0" "x2EEFD2" "x2EEFEA" "x2EF6D2" "x2EF6DA" "x2EF6E1" "x2EF6E8" "x2EF6F0" "x2FD2D2" "x31D8E7" "x33F6E8" "x35DAD2" "x37D8E7" "x3BCBE2" "x3BCBEF" "x3BCFCE" "x3BDDCE" "x3BDDE7" }
    traits = {}
    city = "x2ED2D2"
    arable_land = 1
    arable_resources = { bg_wheat_farms bg_livestock_ranches bg_serpentbloom_farms }
    capped_resources = {
        bg_logging = 1
    }
}

STATE_GROZUMDIHR = {
    id = 726
    subsistence_building = "building_subsistence_farms"
    provinces = { "x00CE70" "x00D890" "x00F4CB" "x00FFE4" "x0CEDC5" "x0D5E17" "x10C781" "x159354" "x17ECD4" "x18C792" "x1DCCDE" "x20C89D" "x20E9DE" "x24D5DE" "x25DADB" "x28C1A6" "x2CEAD6" "x31AB9B" "x32E9E9" "x32EED2" "x33F8C1" "x34C0B6" "x35C4A9" "x35C4B9" "x38C385" "x3D5D75" "x3FBEC4" "x41D27F" "x43E1EB" "x43F4CD" "x45E4AF" "x45EDC0" "x49CEFE" "x4AE17A" "x4AEC93" "x4EAEA3" "x4EB5D4" "x612E62" "x697540" "x725D19" "x93165E" "x975D73" "xA4B2CB" "xAD50CA" "xAFB2F8" }
    traits = {}
    city = "x18C792"
    arable_land = 1
    arable_resources = { bg_wheat_farms bg_livestock_ranches bg_serpentbloom_farms }
    capped_resources = {
        bg_logging = 1
    }
}

STATE_OVDAL_AZ_AN = {
    id = 727
    subsistence_building = "building_subsistence_farms"
    provinces = { "x11F7C3" "x17A27B" "x1F4292" "x27DEE2" "x31AA2B" "x356AB8" "x4B6C98" "x4DDFE5" "x5510CC" "x63D9D5" "x6A405F" "x7010D2" "x72655F" "x7B0F59" "x7F795F" "x8145CC" "x8177D3" "x8187DE" "x8197E8" "x858A5C" "x859451" "x88D774" "x8952C9" "x9697EE" "x9765C9" "x9E17C6" "xA03A55" "xA430C5" "xA575C9" "xA92EE3" "xB63EE3" "xBA10EB" "xBC4CE1" "xC82AB5" "xC875ED" "xCF2431" "xD471E7" "xE6CAE9" }
    traits = {}
    city = "x7010D2"
    arable_land = 1
    arable_resources = { bg_wheat_farms bg_livestock_ranches bg_serpentbloom_farms }
    capped_resources = {
        bg_logging = 1
    }
}

STATE_HUL_AZ_KRAKAZOL = {
    id = 728
    subsistence_building = "building_subsistence_farms"
    provinces = { "x7F6695" "x7FB6C8" "x84B2CB" "x8A619C" "x93AED4" "x99C48D" "x9E5CA8" "x9EA399" "x9EA88D" "x9EAC8D" "xA39EA7" "xA447D6" "xA83CE1" "xA87C8D" "xAC9ABA" "xAD698D" "xAFAC8D" "xB16499" "xB44FB6" "xB55DA9" "xB69BD2" "xB87AFA" "xBA28FF" "xBA4CC8" "xBA60E1" "xBA87ED" "xBB9CE4" "xBD6EFF" "xBD8FB0" "xBE46D9" "xC191A5" "xC279F1" "xC88EBB" "xCD6CEF" "xCE6CEF" "xCF5EEA" "xD05AB9" "xD070B9" "xD170C8" "xD185BA" "xD28AC6" "xD386A5" "xDF71D9" "xE02BFF" "xE259F7" "xE841D5" "xF06FEE" "xF435C8" "xF657E9" "xFA3DE2" "xFF2ABB" }
    traits = {}
    city = "xE02BFF"
    arable_land = 1
    arable_resources = { bg_wheat_farms bg_livestock_ranches bg_serpentbloom_farms }
    capped_resources = {
        bg_logging = 1
    }
}

STATE_TUWAD_DHUMANKON = {
    id = 729
    subsistence_building = "building_subsistence_farms"
    provinces = { "x042837" "x0B1D59" "x6587A9" "x6683B2" "x6D7FBD" "x7664A9" "x7E54A9" "x808AA9" "x8450B2" "x8B4BBE" "x8F62FB" "x926DF2" "x937DEA" "x9938E2" "x9D34ED" "xB5DFE7" "xBA35EE" "xD937EC" "xEB76DA" "xF11469" "xF150D0" "xF937CD" "xFEE8B7" }
    traits = {}
    city = "x8450B2"
    arable_land = 1
    arable_resources = { bg_wheat_farms bg_livestock_ranches bg_serpentbloom_farms }
    capped_resources = {
        bg_logging = 1
    }
}

STATE_GRONSTUNAD = {
    id = 730
    subsistence_building = "building_subsistence_farms"
    provinces = { "x0400C5" "x1200D8" "x282B11" "x2A3521" "x2B4033" "x2B9257" "x2BD52E" "x2C5374" "x2C5865" "x2D6275" "x304613" "x306451" "x334F73" "x359460" "x3CB936" "x426B14" "x42836B" "x437347" "x437424" "x43796C" "x437A79" "x448A67" "x497C72" "x498A67" "x4B779C" "x4E8966" "x5677AE" "x577983" "x58ACB5" "x58E4D5" "x5B5496" "x5D457D" "x5D6692" "x6244CB" "x6685BA" "x8247C5" "x86329B" "xE8B837" "xEB9F21" }
    traits = {}
    city = "x577983"
    arable_land = 1
    arable_resources = { bg_wheat_farms bg_livestock_ranches bg_serpentbloom_farms }
    capped_resources = {
        bg_logging = 1
    }
}

STATE_VURDRIZ_ANDRIZ = {
    id = 731
    subsistence_building = "building_subsistence_farms"
    provinces = { "x00BA10" "x00C93C" "x00EF8F" "x00FFB3" "x07E976" "x10B71D" "x1DE687" "x2A4E53" "x37E49B" "x4C5286" "x4DE0A9" "x58CBA5" "x69C339" "x75B5B0" "x91B2C9" "xAFBBD6" "xAFD06B" "xBC8D56" "xBC969B" }
    traits = {}
    city = "x1DE687"
    arable_land = 1
    arable_resources = { bg_wheat_farms bg_livestock_ranches bg_serpentbloom_farms }
    capped_resources = {
        bg_logging = 1
    }
}

STATE_VERKAL_DROMAK = {
    id = 732
    subsistence_building = "building_subsistence_farms"
    provinces = { "xC7210B" "xC7210E" "xC72114" "xC72117" "xD22714" "xD72714" "xD9210B" "xDC2714" "xDF210B" "xE22714" "xE5210B" "xEB210B" "xEB270B" "xEB2D18" "xEB300B" "xEB370B" "xEB3F0B" "xEB460B" "xEB460E" "xEB4614" "xF32714" "xF61D0A" "xF62C0A" "xF62C14" }
    traits = {}
    city = "xE5210B"
    arable_land = 1
    arable_resources = { bg_wheat_farms bg_livestock_ranches bg_serpentbloom_farms }
    capped_resources = {
        bg_logging = 1
    }
}

STATE_GIANTS_ANVIL = {
    id = 735
    subsistence_building = "building_subsistence_farms"
    provinces = { "x234470" "x268148" "x2C2D80" "x59426B" "x813354" "xE1DF1B" }
    impassable = { "xE1DF1B" }
    traits = { state_trait_dwarovar_caverns }
    arable_land = 1
    arable_resources = { bg_serpentbloom_farms bg_livestock_ranches }
    capped_resources = {
        bg_logging = 1
    }
}

STATE_DEAD_END_MINES = {
    id = 736
    subsistence_building = "building_subsistence_farms"
    provinces = { "x482010" "x65456B" "x8170AC" "xDAB934" }
    impassable = { "xdab934" }
    traits = { state_trait_dwarovar_caverns }
    arable_land = 1
    arable_resources = { bg_serpentbloom_farms bg_livestock_ranches }
    capped_resources = {
        bg_logging = 1
    }
}

STATE_WESTERN_VALE = {
    id = 737
    subsistence_building = "building_subsistence_farms"
    provinces = { "x2B6A2B" "x369D4C" "x6F90F5" "x719900" "x75961A" "x96D54C" "xD00AA8" "xD2CD44" }
    impassable = { "x6F90F5" }
    traits = { state_trait_serpentsvale }
    arable_land = 1
    arable_resources = { bg_wheat_farms bg_livestock_ranches bg_serpentbloom_farms }
    capped_resources = {
        bg_logging = 1
    }
}

STATE_EASTERN_VALE = {
    id = 738
    subsistence_building = "building_subsistence_farms"
    provinces = { "x35A435" "x7FBA62" "x9FE4C1" "xC6DB39" "xC9BFA9" "xE33636" }
    impassable = { "x9FE4C1" }
    traits = { state_trait_serpentsvale }
    arable_land = 1
    arable_resources = { bg_wheat_farms bg_livestock_ranches bg_serpentbloom_farms }
    capped_resources = {
        bg_logging = 1
    }
}

STATE_UPPER_DAGRINROD = {
    id = 739
    subsistence_building = "building_subsistence_farms"
    provinces = { "x169050" "x30C1BF" "x3E4949" "x5D457E" "x86C6C0" "xBC6EDC" "xC44A83" "xE7B046" "xE80505" "xFF5ACB" }
    impassable = { "x169050" "x3E4949" "xC44A83" }
    traits = { state_trait_dwarovrod }
    arable_land = 1
    arable_resources = { bg_wheat_farms bg_livestock_ranches bg_serpentbloom_farms }
    capped_resources = {
        bg_logging = 1
    }
}

STATE_LOWER_DAGRINROD = {
    id = 740
    subsistence_building = "building_subsistence_farms"
    provinces = { "x2219E8" "x339E2D" "x473849" "x5B7DDE" "x88308E" "xB59660" "xC83A4E" "xE5AB21" "xE80B0B" "xF315AC" "xF8F59D" }
    impassable = { "x473849" }
    traits = { state_trait_dwarovrod }
    arable_land = 1
    arable_resources = { bg_wheat_farms bg_livestock_ranches bg_serpentbloom_farms }
    capped_resources = {
        bg_logging = 1
    }
}

STATE_LIMONITE_CAVERNS = {
    id = 741
    subsistence_building = "building_subsistence_farms"
    provinces = { "x0F0F45" "x2EAEB0" "xB4D4B4" "xBFC49B" "xC4120F" "xCF2A13" "xDE2F60" "xDE452C" "xDE97C8" }
    impassable = { "xBFC49B" "xC4120F" "x0F0F45" }
    traits = { state_trait_dwarovar_caverns }
    arable_land = 1
    arable_resources = { bg_wheat_farms bg_livestock_ranches bg_serpentbloom_farms }
    capped_resources = {
        bg_logging = 1
    }
}

STATE_TRUEPATH_CAVERNS = {
    id = 742
    subsistence_building = "building_subsistence_farms"
    provinces = { "x101C0B" "x1C8687" "x1FA2D7" "x23F0A0" "x2C734A" "x39D02A" "x3A004A" "x3CF8EB" "x52600C" "x895EEA" "x8C4410" "x9197D4" "xA17997" "xAC7620" "xC1004A" "xCBA05D" "xCE1796" "xD07189" "xD2A435" "xECE2A9" }
    impassable = { "x3A004A" "xCE1796" "x23F0A0" "x3CF8EB" "x1FA2D7" "xC1004A" "x2C734A" "x8C4410" }
    traits = { state_trait_dwarovar_caverns state_trait_grumhardhum }
    city = "x52600C" #grumhardhum

    arable_land = 1
    arable_resources = { bg_wheat_farms bg_livestock_ranches bg_serpentbloom_farms }
    capped_resources = {
        bg_logging = 1
    }
}

STATE_CRIMSON_CAVERNS = {
    id = 743
    subsistence_building = "building_subsistence_farms"
    provinces = { "x00947B" "x217E78" "x265315" "x2678B7" "x490640" "x49D185" "x64C93D" "x85E079" "x8EB9BA" "xA94A20" "xAF0D3D" "xD9A62B" "xEAE4AE" "xF46120" "xF846A1" }
    impassable = { "xAF0D3D" "x49D185" "x00947B" "x85E079" "xF846A1" "x217E78" }
    traits = { state_trait_dwarovar_caverns }
    arable_land = 1
    arable_resources = { bg_wheat_farms bg_livestock_ranches bg_serpentbloom_farms }
    capped_resources = {
        bg_logging = 1
    }
}

STATE_HARAZA_DEPTHS = {
    id = 744
    subsistence_building = "building_subsistence_farms"
    provinces = { "x2C734B" "x326C83" "x3E460F" "x5AEF22" "x7B5672" "x895EEB" "x8C4411" "xAFB1E0" "xC60C94" "xDC9017" "xE1F820" "xE8C522" "xECE2AA" "xED2C00" }
    impassable = { "x2C734B" "x5AEF22" "x326C83" "x895EEB" "xAFB1E0" }
    traits = { state_trait_dwarovar_caverns }
    arable_land = 1
    arable_resources = { bg_wheat_farms bg_livestock_ranches bg_serpentbloom_farms }
    capped_resources = {
        bg_logging = 1
    }
}

STATE_KHUGSCAVE = {
    id = 745
    subsistence_building = "building_subsistence_farms"
    provinces = { "x00947C" "x23F0A1" "x2678B8" "x3CF8EC" "x3DEA59" "x4A4306" "x74E09E" "x7EA036" "x93D2EA" "xA56D45" "xC6B8ED" "xE00F28" "xEA8245" "xED2D50" "xED93C7" "xEDD8C7" }
    impassable = { "x3CF8EC" "x2678B8" "x93D2EA" "x4A4306" "x00947C" "xE00F28" }
    traits = { state_trait_dwarovar_caverns }
    arable_land = 1
    arable_resources = { bg_wheat_farms bg_livestock_ranches bg_serpentbloom_farms }
    capped_resources = {
        bg_logging = 1
    }
}

STATE_WESTROD = {
    id = 746
    subsistence_building = "building_subsistence_farms"
    provinces = { "x105B34" "x1B9F81" "x2B8FC9" "x5E34D5" "x8DE11F" "x9A5C19" "xA25B34" "xAB436D" "xAF0D3E" "xC4A55B" "xEA1B1B" "xEF3169" }
    traits = { state_trait_dwarovrod }
    arable_land = 1
    arable_resources = { bg_wheat_farms bg_livestock_ranches bg_serpentbloom_farms }
    capped_resources = {
        bg_logging = 1
    }
}

STATE_ASRA_DEPTHS = {
    id = 747
    subsistence_building = "building_subsistence_farms"
    provinces = { "x188C63" "x2B2EA7" "x397023" "x490641" "x50E0A2" "x7B5924" "xB0429B" "xB40F96" "xE0642A" "xE3E8ED" "xED6371" "xEFC092" "xF846A2" }
    impassable = { "x50E0A2" "xF846A2" "x188C63" "x490641" "xE0642A" "xB0429B" }
    traits = { state_trait_dwarovar_caverns }
    arable_land = 1
    arable_resources = { bg_wheat_farms bg_livestock_ranches bg_serpentbloom_farms }
    capped_resources = {
        bg_logging = 1
    }
}

STATE_CHAINLINK_MINES = {
    id = 748
    subsistence_building = "building_subsistence_farms"
    provinces = { "x21DC1C" "x241BD0" "x2C7B2A" "x2E7631" "x3A3742" "x6ABD68" "x7A9BC2" "x7B7FD0" "x8255AC" "xA4ED5E" "xA97F4D" "xB98DA5" "xDB9FB7" "xE0B87F" "xE1509F" }
    impassable = { "xA4ED5E" "x3A3742" "xE0B87F" "x7A9BC2" "x2E7631" }
    traits = { state_trait_dwarovar_caverns }
    arable_land = 1
    arable_resources = { bg_wheat_farms bg_livestock_ranches bg_serpentbloom_farms }
    capped_resources = {
        bg_logging = 1
    }
}

STATE_SKULKERS_LAIR = {
    id = 749
    subsistence_building = "building_subsistence_farms"
    provinces = { "x0406A5" "x282E0A" "x60C4A4" "x7A3D69" "xA1FD83" "xAA79FA" "xAE136E" "xB6DC06" "xDC4ECA" }
    impassable = { "x0406A5" "x60C4A4" "xA1FD83" }
    traits = { state_trait_dwarovar_caverns }
    arable_land = 1
    arable_resources = { bg_wheat_farms bg_livestock_ranches bg_serpentbloom_farms }
    capped_resources = {
        bg_logging = 1
    }
}

STATE_THE_RAILYARD = {
    id = 750
    subsistence_building = "building_subsistence_farms"
    provinces = { "x2C48A6" "x37F617" "x3A75AB" "x6138D0" "xADACC4" "xB365E5" "xCF0F96" "xDC3400" "xDEB023" "xE12D2D" }
    impassable = { "xADACC4" }
    traits = { state_trait_dwarovrod }
    arable_land = 1
    arable_resources = { bg_wheat_farms bg_livestock_ranches bg_serpentbloom_farms }
    capped_resources = {
        bg_logging = 1
    }
}

STATE_JORKAD_JUNCTION = {
    id = 751
    subsistence_building = "building_subsistence_farms"
    provinces = { "x098C9F" "x49690C" "x7084BF" "x7C1696" "x8B35CD" "x8CD717" "xA4EA35" "xA5A3A2" "xB287C1" "xBF288F" "xEF2139" "xFA0F64" }
    impassable = { "xB287C1" "xA5A3A2" "x7084BF" }
    traits = { state_trait_dwarovrod }
    arable_land = 1
    arable_resources = { bg_wheat_farms bg_livestock_ranches bg_serpentbloom_farms }
    capped_resources = {
        bg_logging = 1
    }
}

STATE_DEAD_CAVERNS = {
    id = 752
    subsistence_building = "building_subsistence_farms"
    provinces = { "x0C4570" "x0FF1D1" "x1EBC35" "x460479" "x46B5E0" "x4E7E3C" "x7671C4" "x85D53E" "x89891B" "x8D89B0" "x8DC187" "xBBCBAD" "xBC4631" "xC1845B" "xC47540" "xD71149" "xD7C484" "xE60FAF" "xF00FC8" "xF18F12" "xFE3499" "xFFF7BE" }
    impassable = { "x7671C4" "xFFF7BE" "x89891B" "xC47540" "x0FF1D1" "x46B5E0" "xC1845B" }
    traits = { state_trait_dwarovar_caverns }
    arable_land = 1
    arable_resources = { bg_wheat_farms bg_livestock_ranches bg_serpentbloom_farms }
    capped_resources = {
        bg_logging = 1
    }
}

STATE_SKITTERING_CAVERNS = {
    id = 753
    subsistence_building = "building_subsistence_farms"
    provinces = { "x015C88" "x043788" "x0501E7" "x157C3C" "x180F9C" "x1CBF46" "x2E6020" "x30EDF4" "x359824" "x560B78" "x61B11A" "x7B7B0E" "x914C88" "x918C62" "xA8BF95" "xB57130" "xBF5989" "xBF752E" "xC259A4" "xC3B8C4" "xC62EF9" "xCF0FAF" "xCFCD25" "xDB2CC4" "xE37D1A" }
    impassable = { "x918C62" "xC3B8C4" "x0501E7" "x180F9C" "xC62EF9" "x7B7B0E" "x015C88" "xC259A4" "x560B78" }
    traits = { state_trait_dwarovar_caverns }
    arable_land = 1
    arable_resources = { bg_wheat_farms bg_livestock_ranches bg_serpentbloom_farms }
    capped_resources = {
        bg_logging = 1
    }
}

STATE_CRUMBLING_CAVERNS = {
    id = 754
    subsistence_building = "building_subsistence_farms"
    provinces = { "x0D32E4" "x1D669C" "x2B2BBF" "x564EAD" "x73BC71" "x86BF4A" "xBBBF59" "xBC0006" "xBCB7B3" "xBF2315" "xBF2A88" "xBF2B15" "xBF431A" "xBF656B" "xBFB489" "xC0C178" "xC1502E" "xC1832E" }
    impassable = { "xC1832E" "xC1502E" "x564EAD" "x0D32E4" "xC0C178" "x1D669C" }
    traits = { state_trait_dwarovar_caverns }
    arable_land = 1
    arable_resources = { bg_wheat_farms bg_livestock_ranches bg_serpentbloom_farms }
    capped_resources = {
        bg_logging = 1
    }
}

STATE_ARGROD_JUNCTION = {
    id = 755
    subsistence_building = "building_subsistence_farms"
    provinces = { "x319B63" "xACC166" "xC0DB0A" "xC81375" "xCEE3A9" "xDE6C45" "xDFEC49" "xEACC96" "xF10F0F" }
    impassable = { "xACC166" }
    traits = { state_trait_dwarovrod }
    arable_land = 1
    arable_resources = { bg_wheat_farms bg_livestock_ranches bg_serpentbloom_farms }
    capped_resources = {
        bg_logging = 1
    }
}

STATE_ARGROD = {
    id = 756
    subsistence_building = "building_subsistence_farms"
    provinces = { "x2A48C9" "x58A3D7" "x59E124" "x79A2D0" "x79E165" "xD0D547" "xFFEFA3" }
    traits = { state_trait_dwarovrod }
    arable_land = 1
    arable_resources = { bg_wheat_farms bg_livestock_ranches bg_serpentbloom_farms }
    capped_resources = {
        bg_logging = 1
    }
}

STATE_ARGROD_TERMINUS = {
    id = 757
    subsistence_building = "building_subsistence_farms"
    provinces = { "x1D3B9F" "x2D7439" "x46E036" "x6B79BF" "xDB543A" "xDCFB2F" "xE08636" }
    traits = { state_trait_dwarovrod }
    arable_land = 1
    arable_resources = { bg_wheat_farms bg_livestock_ranches bg_serpentbloom_farms }
    capped_resources = {
        bg_logging = 1
    }
}

STATE_SCALDING_PITS = {
    id = 758
    subsistence_building = "building_subsistence_farms"
    provinces = { "x1C2A5C" "x2ACFCC" "x2C34C9" "x3DF8BA" "x48C633" "x63CCEA" "x912F27" "x91A5B1" "x969F2F" "xA104B6" "xAF3A5C" "xBE211D" "xC1B295" "xCFD102" "xDC1E6A" "xE38735" "xE3A437" "xE91AD2" "xEC3974" "xECDC74" "xF81313" "xF8E788" }
    impassable = { "xBE211D" "xCFD102" "x1C2A5C" "xE91AD2" "xC1B295" }
    traits = { state_trait_dwarovar_caverns state_trait_geothermal_facility }
    city = "x91A5B1" #dimlherd

    arable_land = 1
    arable_resources = { bg_wheat_farms bg_livestock_ranches bg_serpentbloom_farms }
    capped_resources = {
        bg_logging = 1
    }
}

STATE_FORGOTTEN_DEPTHS = {
    id = 759
    subsistence_building = "building_subsistence_farms"
    provinces = { "x050D7B" "x075478" "x39AC3B" "x6D5E0A" "x76FC47" "x93BCC1" "xA9BF61" "xB11B91" "xC12A19" "xE308CC" "xF4A275" }
    impassable = { "xE308CC" "xF4A275" "x050D7B" "xB11B91" "x075478" }
    traits = { state_trait_dwarovar_caverns }
    arable_land = 1
    arable_resources = { bg_wheat_farms bg_livestock_ranches bg_serpentbloom_farms }
    capped_resources = {
        bg_logging = 1
    }
}

STATE_ORCSFALL = {
    id = 760
    subsistence_building = "building_subsistence_farms"
    provinces = { "x1B2878" "x2AE76C" "x3A75AC" "x593D4E" "x6ACAD7" "x881EA6" "x9B78FA" "xA0EFCA" "xA7EA18" "xAF5C8A" "xC80FC8" "xD19A2B" "xD20F64" "xE54737" }
    impassable = { "x593D4E" "x6ACAD7" "x9B78FA" "xA7EA18" "x881EA6" "xD19A2B" }
    traits = { state_trait_dwarovar_caverns state_trait_petrified_forest }
    wood = "x1B2878" #petrified forest

    arable_land = 1
    arable_resources = { bg_wheat_farms bg_livestock_ranches bg_serpentbloom_farms }
    capped_resources = {
        bg_logging = 1
    }
}

STATE_WINDING_CAVERNS = {
    id = 761
    subsistence_building = "building_subsistence_farms"
    provinces = { "x0D43A3" "x1674C9" "x20FBD4" "x2FA31C" "x34FD25" "x4501B5" "x4BA9D9" "x578207" "x5F4409" "x6D31BB" "x72C1B9" "x75D863" "x780D8A" "x8BC872" "x8FFF85" "x96FBCC" "x980054" "xA5C162" "xB8B4EF" "xC1956C" "xCD1717" "xE3FD21" "xE79A05" "xE7D134" "xF30145" "xF78717" "xF9F001" }
    impassable = { "x1674C9" "x0D43A3" "x2FA31C" "x980054" "x578207" "x780D8A" "xE3FD21" "x4501B5" "x72C1B9" "x5F4409" "x75D863" }
    traits = { state_trait_dwarovar_caverns }
    arable_land = 1
    arable_resources = { bg_wheat_farms bg_livestock_ranches bg_serpentbloom_farms }
    capped_resources = {
        bg_logging = 1
    }
}

STATE_SCREAMING_CAVERNS = {
    id = 762
    subsistence_building = "building_subsistence_farms"
    provinces = { "x0C95BC" "x0D43A4" "x0E1C16" "x1674CA" "x3A9800" "x4501B6" "x452E46" "x578208" "x63BED8" "x6D31BC" "x7BBE70" "x8BC873" "x9B3D4F" "xA389C1" "xA7BA24" "xAA00B3" "xB987E0" "xBB9C5A" "xC93655" "xD96C81" "xDE91A1" "xE3FD22" "xE7D135" "xEB9991" "xEC4E00" }
    impassable = { "x452E46" "xA389C1" "xAA00B3" "x8BC873" "x0D43A4" "xE7D135" "xE3FD22" "xEB9991" "x0E1C16" }
    traits = { state_trait_dwarovar_caverns }
    arable_land = 1
    arable_resources = { bg_wheat_farms bg_livestock_ranches bg_serpentbloom_farms }
    capped_resources = {
        bg_logging = 1
    }
}

STATE_DIAMOND_QUARRY = {
    id = 763
    subsistence_building = "building_subsistence_farms"
    provinces = { "x15733B" "x20DAAD" "x3DC97B" "x44E11A" "x4F5FFD" "x56F50B" "x5D94C1" "x5D94C1" "x666FAF" "x76D60E" "x92C6D9" "xC468BF" "xC73F59" "xD77545" "xEF2151" "xF1F914" "xFF853B" }
    impassable = { "x4F5FFD" "x56F50B" "x5D94C1" "xC73F59" "x15733B" "x5D94C1" "x76D60E" }
    traits = { state_trait_dwarovar_caverns }
    arable_land = 1
    arable_resources = { bg_wheat_farms bg_livestock_ranches bg_serpentbloom_farms }
    capped_resources = {
        bg_logging = 1
    }
}

STATE_DRAKEDENS = {
    id = 764
    subsistence_building = "building_subsistence_farms"
    provinces = { "x2B47CD" "x317B50" "x59500B" "x775EA5" "x84873E" "x8487F4" "xA51223" "xA52C2E" "xA55F43" "xA5814A" "xA59272" "xDD3924" }
    impassable = { "x59500B" "x2B47CD" "x317B50" "x8487F4" }
    traits = { state_trait_dwarovar_caverns }
    arable_land = 1
    arable_resources = { bg_wheat_farms bg_livestock_ranches bg_serpentbloom_farms }
    capped_resources = {
        bg_logging = 1
    }
}

STATE_VAZUMROD = {
    id = 765
    subsistence_building = "building_subsistence_farms"
    provinces = { "x0DAC2F" "x3C44DB" "x4FA02F" "xDB1A10" "xED2A0A" }
    traits = { state_trait_dwarovrod }
    arable_land = 1
    arable_resources = { bg_wheat_farms bg_livestock_ranches bg_serpentbloom_farms }
    capped_resources = {
        bg_logging = 1
    }
}

STATE_SEGHROD = {
    id = 766
    subsistence_building = "building_subsistence_farms"
    provinces = { "x32BFC8" "x3358C4" "x65C823" "x6C50D5" "x6C8C17" "xB17331" "xB82CDB" "xD75093" "xD95ACC" }
    traits = { state_trait_dwarovrod }
    arable_land = 1
    arable_resources = { bg_wheat_farms bg_livestock_ranches bg_serpentbloom_farms }
    capped_resources = {
        bg_logging = 1
    }
}

STATE_OZUMROD = {
    id = 767
    subsistence_building = "building_subsistence_farms"
    provinces = { "x65E021" "x67A06C" "x77D496" "x915586" "x9D7CD5" "xDBD94C" "xE7B814" }
    traits = { state_trait_dwarovrod }
    arable_land = 1
    arable_resources = { bg_wheat_farms bg_livestock_ranches bg_serpentbloom_farms }
    capped_resources = {
        bg_logging = 1
    }
}

STATE_FORSAKEN_DEPTHS = {
    id = 768
    subsistence_building = "building_subsistence_farms"
    provinces = { "x0C59F6" "x0F2BB8" "x115F9D" "x246174" "x52340F" "x696040" "x7080A5" "x70A5A2" "x81A4A5" "x87A552" "x9F7BF2" "xA34A00" "xA5423B" "xB8193B" "xBCC838" "xC32C8C" "xC3F2B8" "xE9006C" "xED838D" "xF4E6C6" }
    impassable = { "xE9006C" "x0C59F6" "xC3F2B8" "xED838D" "xA34A00" "xB8193B" "x52340F" "x9F7BF2" }
    traits = { state_trait_dwarovar_caverns }
    arable_land = 1
    arable_resources = { bg_wheat_farms bg_livestock_ranches bg_serpentbloom_farms }
    capped_resources = {
        bg_logging = 1
    }
}

STATE_CITRINE_MINES = {
    id = 769
    subsistence_building = "building_subsistence_farms"
    provinces = { "x00C361" "x14858F" "x20726F" "x37271B" "x44992D" "x4A8F4D" "x4E8DA8" "x63C6A8" "x76B0F2" "x7873CF" "x7C9635" "xB1F9FD" "xB56CCE" "xCE4DF0" "xD69FD3" "xD7F2EB" "xD966CA" "xDC9ED1" "xE80C57" "xEF0A0A" "xF1A557" "xF2AF79" }
    impassable = { "x4E8DA8" "x00C361" "x14858F" "xCE4DF0" "xE80C57" "xB1F9FD" "xF1A557" "x37271B" "xD7F2EB" }
    traits = { state_trait_dwarovar_caverns }
    arable_land = 1
    arable_resources = { bg_wheat_farms bg_livestock_ranches bg_serpentbloom_farms }
    capped_resources = {
        bg_logging = 1
    }
}

STATE_GREATCAVERNS = {
    id = 770
    subsistence_building = "building_subsistence_farms"
    provinces = { "x04F408" "x2C2862" "x34104B" "x392AEE" "x444F05" "x4F3AF2" "x4FC10C" "x630C9E" "x66337C" "x6C45F6" "x72E35A" "x78EC91" "x79D1F7" "x7CF8E9" "x8C0F96" "x9EBA2C" "xA00FC8" "xAA0F64" "xBBD243" "xBC3C73" "xBCA15E" "xC50F64" "xC50F96" "xCF0F64" "xCF0FC8" "xD53C5D" "xE77F2B" "xEA646B" }
    impassable = { "x4F3AF2" "x34104B" "x79D1F7" "x4FC10C" "x2C2862" "xBBD243" "x7CF8E9" "x630C9E" }
    traits = { state_trait_dwarovar_caverns }
    arable_land = 1
    arable_resources = { bg_wheat_farms bg_livestock_ranches bg_serpentbloom_farms }
    capped_resources = {
        bg_logging = 1
    }
}

STATE_FOOLS_PASSAGE = {
    id = 771
    subsistence_building = "building_subsistence_farms"
    provinces = { "x16647B" "x1A3553" "x1C031B" "x1F6C29" "x2C7189" "x347919" "x52143A" "x52E1B0" "x57DC73" "x5D0298" "x60C919" "x9E1B25" "xD9ADC7" "xDBD935" "xEDA635" "xF21A02" }
    impassable = { "x5D0298" "x1F6C29" "x1C031B" "xF21A02" "x52143A" "x9E1B25" "xEDA635" }
    traits = { state_trait_dwarovar_caverns state_trait_abandoned_workshop }
    city = "xD9ADC7" #abandoned workshop

    arable_land = 1
    arable_resources = { bg_wheat_farms bg_livestock_ranches bg_serpentbloom_farms }
    capped_resources = {
        bg_logging = 1
    }
}

STATE_RATHOLES = {
    id = 772
    subsistence_building = "building_subsistence_farms"
    provinces = { "x045E13" "x1363EF" "x14B54A" "x26B5F2" "x5DE2C8" "x5FFFB5" "x6B89A5" "x98E3F2" "xBA5B4D" "xE02384" "xE81D98" "xEA9792" "xEAAEF2" "xF25B29" "xF2742B" "xF291CD" "xF2CE7B" }
    impassable = { "x045E13" "xE02384" "xF2CE7B" "x14B54A" "x5FFFB5" "x26B5F2" "x5DE2C8" }
    traits = { state_trait_dwarovar_caverns }
    arable_land = 1
    arable_resources = { bg_wheat_farms bg_livestock_ranches bg_serpentbloom_farms }
    capped_resources = {
        bg_logging = 1
    }
}

STATE_ANCIENT_DEPTHS = {
    id = 773
    subsistence_building = "building_subsistence_farms"
    provinces = { "x0E1024" "x2F4F3B" "x325190" "x385410" "x5046D1" "x5A1990" "x5F0FF5" "x752A29" "x8A9210" "x9262E1" "x944CCD" "x94902E" "x9E95A5" "xA0A590" "xA50055" "xA51085" "xA51C2C" "xA5600B" "xA57A3D" "xA5904F" "xB49DF2" "xD0E4F2" "xD17302" "xD230FF" "xD916FC" "xD9C6BE" "xEFA9F2" "xF2119C" "xF2E6CD" "xF67D0E" }
    impassable = { "x5046D1" "xD230FF" "x385410" "xEFA9F2" "x2F4F3B" "xF2119C" "x9262E1" "x944CCD" "x0E1024" "x5F0FF5" "xF67D0E" }
    traits = { state_trait_dwarovar_caverns }
    arable_land = 1
    arable_resources = { bg_wheat_farms bg_livestock_ranches bg_serpentbloom_farms }
    capped_resources = {
        bg_logging = 1
    }
}

STATE_COPPER_ROAD = {
    id = 774
    subsistence_building = "building_subsistence_farms"
    provinces = { "x23E030" "x4585EF" "x85270A" "x96AB13" "x98B6C9" "xAA7280" "xDBDE01" "xEFE145" }
    impassable = { "x85270A" "xDBDE01" }
    traits = { state_trait_dwarovrod }
    arable_land = 1
    arable_resources = { bg_wheat_farms bg_livestock_ranches bg_serpentbloom_farms }
    capped_resources = {
        bg_logging = 1
    }
}

STATE_HALNROD = {
    id = 775
    subsistence_building = "building_subsistence_farms"
    provinces = { "x09A985" "x2C8E2E" "x2C985F" "x8DDCAC" "x991ED2" "xC9923A" "xD71E70" "xD76767" }
    traits = { state_trait_dwarovrod }
    arable_land = 1
    arable_resources = { bg_wheat_farms bg_livestock_ranches bg_serpentbloom_farms }
    capped_resources = {
        bg_logging = 1
    }
}

STATE_GROZUMROD = {
    id = 776
    subsistence_building = "building_subsistence_farms"
    provinces = { "x0FF1F4" "x2E27C3" "x53A7BC" "x83C78B" "x9B12CB" "xDE1111" "xF28CD0" }
    impassable = { "xF28CD0" "x9B12CB" }
    traits = { state_trait_dwarovrod }
    arable_land = 1
    arable_resources = { bg_wheat_farms bg_livestock_ranches bg_serpentbloom_farms }
    capped_resources = {
        bg_logging = 1
    }
}

STATE_DRUNKEN_ROAD = {
    id = 777
    subsistence_building = "building_subsistence_farms"
    provinces = { "x1FE324" "x4FB551" "x6320C8" "x9FC893" "xA6325E" "xAB0D36" "xE1CD24" "xE74E0A" }
    traits = { state_trait_dwarovrod }
    arable_land = 1
    arable_resources = { bg_wheat_farms bg_livestock_ranches bg_serpentbloom_farms }
    capped_resources = {
        bg_logging = 1
    }
}

STATE_AMBER_MINES = {
    id = 778
    subsistence_building = "building_subsistence_farms"
    provinces = { "x0336EE" "x34E6E1" "x37811D" "x436BB3" "x4A40E1" "x5BC421" "x83A41B" "x89634C" "x906570" "x9E85F2" "xA71977" "xB249B2" "xC417C0" "xC6C55F" "xD2B336" "xD43BF4" "xD78018" "xDB1758" "xE0DE5D" }
    impassable = { "xD43BF4" "xA71977" "x34E6E1" "x9E85F2" "xC417C0" "x906570" "x4A40E1" "x89634C" }
    traits = { state_trait_dwarovar_caverns }
    arable_land = 1
    arable_resources = { bg_wheat_farms bg_livestock_ranches bg_serpentbloom_farms }
    capped_resources = {
        bg_logging = 1
    }
}

STATE_EARTHSEED = {
    id = 779
    subsistence_building = "building_subsistence_farms"
    provinces = { "x1FD25A" "x354CB0" "x35C8C3" "x6D13AB" "xA77A36" "xA8A2CB" "xB33737" "xC7F2A2" "xC9758F" "xD1E33B" "xD432AB" "xD6E718" "xDD610C" "xEAA57A" "xFCF79C" "xFF0E3B" }
    impassable = { "xEAA57A" "xC7F2A2" "x6D13AB" "xFCF79C" "xB33737" "xA8A2CB" "xC9758F" }
    traits = { state_trait_dwarovar_caverns }
    arable_land = 1
    arable_resources = { bg_wheat_farms bg_livestock_ranches bg_serpentbloom_farms }
    capped_resources = {
        bg_logging = 1
    }
}

STATE_ROARING_CAVERNS = {
    id = 780
    subsistence_building = "building_subsistence_farms"
    provinces = { "x0D4270" "x11C38A" "x453BC8" "x4E1281" "x4FB81B" "x5B908E" "x73FDED" "x7C9EE3" "x7F54A4" "x804311" "xA8DB20" "xD2F0F2" "xE92518" "xEDC6EF" }
    impassable = { "xE92518" "x73FDED" "x804311" "x4E1281" "x7C9EE3" "xEDC6EF" }
    traits = { state_trait_dwarovar_caverns }
    arable_land = 1
    arable_resources = { bg_wheat_farms bg_livestock_ranches bg_serpentbloom_farms }
    capped_resources = {
        bg_logging = 1
    }
}

STATE_AMETHYST_POCKET = {
    id = 781
    subsistence_building = "building_subsistence_farms"
    provinces = { "x27DEE3" "x3A3BDA" "x4B6C99" "x64017A" "xBFD7EF" "xC74C16" "xC7EF62" "xDE5BAA" "xE2BAEF" "xEF2124" }
    impassable = { "x4B6C99" "xC74C16" "xC7EF62" "x27DEE3" }
    traits = { state_trait_dwarovar_caverns }
    arable_land = 1
    arable_resources = { bg_wheat_farms bg_livestock_ranches bg_serpentbloom_farms }
    capped_resources = {
        bg_logging = 1
    }
}

STATE_ALEMINES = {
    id = 782
    subsistence_building = "building_subsistence_farms"
    provinces = { "x00A0FF" "x095861" "x0E1F02" "x163405" "x1B4758" "x30A733" "x46C646" "x4D7DC3" "x5D26BE" "x6D5611" "x743EB7" "x969229" "xAB0BEF" "xB2B59E" "xB8BEAB" "xC87E5B" "xD44F9A" "xFB8DF9" }
    impassable = { "x6D5611" "x095861" "x1B4758" "x163405" "xAB0BEF" "x00A0FF" "x0E1F02" "xC87E5B" }
    traits = { state_trait_dwarovar_caverns state_trait_alemines }
    farm = "x4D7DC3"
    arable_land = 1
    arable_resources = { bg_wheat_farms bg_livestock_ranches bg_serpentbloom_farms }
    capped_resources = {
        bg_logging = 1
    }
}

STATE_GRANITE_SPIRES = {
    id = 783
    subsistence_building = "building_subsistence_farms"
    provinces = { "x01200A" "x042836" "x2637C8" "x5364BA" "x53CB56" "x63D6EE" "x64EAFF" "x661E93" "x737BA0" "xB57C7C" "xBAA919" "xBAF492" "xBBD00A" "xC00976" "xC85C14" "xD53838" "xDFF2D7" "xE01826" "xF246D2" }
    impassable = { "xDFF2D7" "xF246D2" "x01200A" "xC00976" "x64EAFF" "xBAA919" "x63D6EE" "x2637C8" }
    traits = { state_trait_dwarovar_caverns }
    arable_land = 1
    arable_resources = { bg_wheat_farms bg_livestock_ranches bg_serpentbloom_farms }
    capped_resources = {
        bg_logging = 1
    }
}

STATE_WESTERN_JADEROD = {
    id = 784
    subsistence_building = "building_subsistence_farms"
    provinces = { "x0D5E6D" "x45194B" "x756DC9" "x76B07B" "x86B18D" "x879B69" "xB86F6F" "xD22A2A" "xD5C510" }
    traits = { state_trait_dwarovrod }
    arable_land = 1
    arable_resources = { bg_wheat_farms bg_livestock_ranches bg_serpentbloom_farms }
    capped_resources = {
        bg_logging = 1
    }
}

STATE_EASTERN_JADEROD = {
    id = 785
    subsistence_building = "building_subsistence_farms"
    provinces = { "x33AC6C" "x3F801B" "x634DC3" "x7C3C56" "x9F4949" "xA3B752" "xB9E328" "xC353BF" "xC9A71D" }
    traits = { state_trait_dwarovrod }
    arable_land = 1
    arable_resources = { bg_wheat_farms bg_livestock_ranches bg_serpentbloom_farms }
    capped_resources = {
        bg_logging = 1
    }
}

STATE_INVADERS_PATH = {
    id = 786
    subsistence_building = "building_subsistence_farms"
    provinces = { "x147661" "x1CF796" "x2423D8" "x37A696" "x3CC2AD" "x443BEF" "x4F8898" "x69DB8E" "xC62F65" "xD2EFDA" "xD9BC68" "xEFC562" }
    impassable = { "x443BEF" "xD9BC68" "x37A696" "x147661" "xEFC562" "x2423D8" }
    traits = { state_trait_dwarovar_caverns }
    arable_land = 1
    arable_resources = { bg_wheat_farms bg_livestock_ranches bg_serpentbloom_farms }
    capped_resources = {
        bg_logging = 1
    }
}

STATE_LUSH_CAVERNS = {
    id = 787
    subsistence_building = "building_subsistence_farms"
    provinces = { "x082B6A" "x2D2B0C" "x38BDD7" "x499EA6" "x68C498" "x765BA6" "x90EA02" "xC9461E" "xD047C8" "xD79B55" "xE00C48" "xEBEFE1" "xEC7014" }
    impassable = { "x2D2B0C" "x38BDD7" "x082B6A" "x765BA6" "xEBEFE1" "x90EA02" }
    traits = { state_trait_dwarovar_caverns }
    arable_land = 1
    arable_resources = { bg_wheat_farms bg_livestock_ranches bg_serpentbloom_farms }
    capped_resources = {
        bg_logging = 1
    }
}

STATE_PUTRID_PASSAGE = {
    id = 788
    subsistence_building = "building_subsistence_farms"
    provinces = { "x005B07" "x043A8D" "x24173F" "x36C16A" "x3EEFBD" "x48F628" "x592391" "x608088" "x707894" "x791927" "x84BB14" "x86C483" "x8906D2" "x95BA95" "x9D4D5A" "xB1D71A" "xB3E368" "xD40E59" "xEF4A34" "xF4DD83" }
    impassable = { "x043A8D" "xEF4A34" "x3EEFBD" "x8906D2" "xB1D71A" "x24173F" "x84BB14" "x791927" }
    traits = { state_trait_dwarovar_caverns }
    arable_land = 1
    arable_resources = { bg_wheat_farms bg_livestock_ranches bg_serpentbloom_farms }
    capped_resources = {
        bg_logging = 1
    }
}

STATE_SUNLIT_HOLLOW = {
    id = 789
    subsistence_building = "building_subsistence_farms"
    provinces = { "x055D1E" "x396DE1" "x53EFDA" "x58E08E" "x6471F4" "x797632" "x874D7D" "x9B9BC6" "xAEC3CE" "xB2E75E" "xBFDC21" "xC37BD3" "xD0C675" "xEF6979" "xF8F5AC" }
    impassable = { "xEF6979" "x797632" "x055D1E" "x396DE1" "xAEC3CE" "xC37BD3" }
    traits = { state_trait_dwarovar_caverns }
    arable_land = 1
    arable_resources = { bg_wheat_farms bg_livestock_ranches bg_serpentbloom_farms }
    capped_resources = {
        bg_logging = 1
    }
}

STATE_HJYRTSIKKI = {
    id = 790
    subsistence_building = "building_subsistence_pastures"
    provinces = { "x3A807D" "x3BFB8A" "x918944" "x9D8AFA" "xC8924F" }
    impassable = { "xC8924F" }
    traits = { state_trait_mammoth_breeding_area }
    city = "x3BFB8A"
    farm = "x3A807D"
    wood = "x918944"
    arable_land = 20
    arable_resources = { bg_rye_farms bg_livestock_ranches }
    capped_resources = {
        bg_logging = 16
        bg_coal_mining = 20
    }
}
STATE_FRIGID_FOREST = {
    id = 791
    subsistence_building = "building_subsistence_farms"
    provinces = { "x1DA765" "x4A35C6" "x513FD9" "x9668E1" "xB780D5" }
    traits = { state_trait_vroren_river state_trait_mammoth_breeding_area }
    city = ""
    farm = "xE06947"
    wood = "x513FD9"
    mine = "xB780D5"
    arable_land = 23
    arable_resources = { bg_rye_farms bg_livestock_ranches }
    capped_resources = {
        bg_logging = 14
    }
}
STATE_COPPERWOOD = {
    id = 792
    subsistence_building = "building_subsistence_farms"
    provinces = { "x5E3430" "x66B391" "x94F3B6" "xAB403A" "xCF96D6" "xDEA29E" "xE06947" }
    traits = {}
    city = "xDEA29E"
    farm = "xE06947"
    wood = ""
    mine = ""
    arable_land = 26
    arable_resources = { bg_rye_farms bg_livestock_ranches }
    capped_resources = {
        bg_logging = 19
        bg_coal_mining = 26
    }
}
STATE_KHUGSVALE = {
    id = 793
    subsistence_building = "building_subsistence_farms"
    provinces = { "x0FA1C6" "x6A22AC" "x78FB57" "xB07A95" "xC89393" "xEAD711" }
    city = "xc89393"
    farm = "x6a22ac"
    mine = "x0fa1c6"
    arable_land = 18
    arable_resources = { bg_rye_farms bg_livestock_ranches }
    capped_resources = {
        bg_logging = 6
        bg_coal_mining = 12
    }
}
STATE_LONELY_MOUNTAIN = {
    id = 794
    subsistence_building = "building_subsistence_farms"
    provinces = { "x1980E6" "x1BCE62" "x35083D" "x6C9CC1" "x81029E" "x882871" "x89AA24" "x8D15F3" "xA4D39C" "xBB2486" "xDBBF53" }
    impassable = { "x81029E" "x8D15F3" "x6C9CC1" "x35083D" }
    traits = { state_trait_dwarovar_caverns }
    arable_land = 21
    arable_resources = { bg_livestock_ranches }
    capped_resources = {
        bg_coal_mining = 16
        bg_iron_mining = 26
        bg_sulfur_mining = 12
    }
    resource = {
        type = "bg_gold_fields"
        depleted_type = "bg_gold_mining"
        undiscovered_amount = 4
        discovered_amount = 1
    }
}
STATE_TANNING_VALLEY = {
    id = 795
    subsistence_building = "building_subsistence_farms"
    provinces = { "x1DA1D8" "x2C6123" "x2D753B" "x38908D" "x688F6A" "x94C5E3" "x97B97D" "xBA8F3A" }
    traits = { state_trait_vroren_river }
    city = "xBA8F3A" #tanning

    arable_land = 46
    arable_resources = { bg_rye_farms bg_livestock_ranches }
    capped_resources = {
        bg_logging = 7
        bg_lead_mining = 11
    }
}
